"id";"bezirk";"name";"strasse";"plz_ort";"veranstalter";"von";"bis";"oeffnungszeiten";"email";"w3";"bemerkungen";"lat";"lng"
"1";"Charlottenburg-Wilmersdorf";"Weihnachtsmarkt vor dem Schloss Charlottenburg";"Spandauer Damm 20 - 24";"14059 Berlin";"werbeteam berlin/Tommy Erbe
Tel.: 261 20 12, Fax: 261 20 22";"2016-11-21";"2016-12-26";"Mo-Do 14:00-22:00
Fr-So 12:00-22:00
25./26.12. 12:00-20:00";"mailto:info@werbeteam-berlin.de";"www.werbeteam-berlin.de";"zwischen Luisenplatz und Klausenerplatz, 24.12. geschlossen
Weitere Informationen auf der Webseite";"52,519951";"13,295946"
"3";"Charlottenburg-Wilmersdorf";"33. Weihnachtsmarkt an der Gedächtniskirche";"Breitscheidplatz ";"10789 Berlin";"Arbeitsgemeinschaft City e.V.
Budapester Str. 41
Tel.: 262 95 92, Fax: 262 95 93
Schaustellerverband Berlin e.V.
www.schaustellerverband-berlin.de";"2016-11-21";"2017-01-01";"So-Do 11:00-21:00
Fr-Sa 11:00-22:00
24.12. 11:00-14:00
25./26.12. 13:00-21:00
31.12. 11:00-01:00
01.01. 13:00-21:00";"mailto:info@svbev.de";"www.agcity.de";"Eintritt frei
Weitere Informationen auf der Webseite";"52,504886";"13,335511"
"5";"Charlottenburg-Wilmersdorf";"Weihnachtsmarkt in der Fußgängerzone Wilmersdorfer Straße";"Wilmersdorfer Straße";"10627 Berlin";"Lauenburger, A., Tel.: 0163/495 77 62";"2016-11-25";"2016-12-29";"Mo-Fr 11:00-21:00
Sa 10:00-21:00
So 12:00-19:00
24.12. 10:00-14:00
25./26.12. geschlossen";"mailto:lauenburger-pony@gmx.de";"www.wilmersdorfer-arcaden.de";"  Weitere Informationen auf der Webseite";"52,509313";"13,305994"
"7";"Charlottenburg-Wilmersdorf";"Weihnachten in Westend";"Preußenallee";"14052 Berlin";"Family & Friends e. V.
Tel. und Fax: 305 55 21";"2016-12-17";"2016-12-18";"11:00-20:00";"mailto:kontakt@family-and-friends-eV.de";"www.family-and-friends-eV.de";"Eintritt frei, 
Weitere Informationen auf der Webseite";"52,512538";"13,259213"
"9";"Charlottenburg-Wilmersdorf";"Weihnachtsmarkt Berlin-Grunewald des Johannischen Sozialwerks e. V. im St.-Michaels-Heim";"Bismarckallee 23";"14193 Berlin";"Johannisches Sozialwerk e.V.
Tel.: 89 68 80, Fax: 89 68 81 85";"2016-11-25";"2016-11-27";"Fr 16:00-20:00
Sa 14:00-20:00
So 12:00-18:00";"";"www.johannisches-sozialwerk.de";"Weitere Informationen auf der Webseite";"52,48835";"13,27725"
"11";"Charlottenburg-Wilmersdorf";"Schwedischer Weihnachtsbasar";"Landhausstr. 26";"10717 Berlin";"Schwedische Victoriagemeinde
Tel.: 864 95 90, Fax: 86 49 59 99";"2016-11-26";"2016-11-27";"Sa 10:00-19:00
So 12:00-18:00";"mailto:berlin@svenskakyrkan.se";"www.svenskakyrkan.se";"Die Lichterkönigin Lucia kommt an beiden Tagen zweimal am Nachmittag";"52,4874";"13,3287"
"13";"Charlottenburg-Wilmersdorf";"Dänischer Weihnachtsmarkt";"Brienner Str. 12";"10713 Berlin";"Dänische Gemeinde Berlin
Tel. und Fax: 873 44 30";"2016-11-26";"2016-11-27";"Sa 12:00-19:00
So 12:00-18:00";"";"www.christianskirken.de";"";"52,48809";"13,31249"
"15";"Charlottenburg-Wilmersdorf";"Weihnachtsmarkt rund um die Grunewaldkirche";"Bismarckallee 28 B";"14193 Berlin";"Evangelische Kirchengemeinde Grunewald, Kontakt: Petra Krüger, Claudia Noll
, AB/Fax: 23 25 83 02";"2016-11-27";"2016-11-27";"11:00-19:00";"mailto:weihnachtsmarkt@grunewaldgemeinde.de";"www.grunewaldgemeinde.de";"Weitere Informationen auf der Webseite";"52,48543";"13,27483"
"17";"Charlottenburg-Wilmersdorf";"Nikolausmarkt der Beschäftigungs- und Bildungsträger im Rathaus Charlottenburg";"Otto-Suhr-Allee 100";"10585 Berlin";"BA Charlottenburg-Wilmersdorf von Berlin
Abt. Soziales + Gesundheit
Tel.: 902 91 43 04";"2016-11-24";"2016-11-24";"11:00-14:00";"mailto:cw801003@charlottenburg-wilmersdorf.de";"";"";"52,517122";"13,30807"
"19";"Charlottenburg-Wilmersdorf";"Christmas Fair / A very British Christmas";"Preußenallee 17-19";"14052 Berlin";"St George's Church, Preußenallee 17-19, 14052 Berlin, Tel. und Fax: 304 12 80";"2016-12-03";"2016-12-03";"14:30-18:00";"mailto:office@stgeorges.de";"www.stgeorges.de";"";"52,51243";"13,25837"
"21";"Charlottenburg-Wilmersdorf";"Kunsthandwerklicher Weihnachtsmarkt vor dem Bröhanmuseum";"Schloßstr. 1/1 A";"14059 Berlin";"Kiezbündnis Klausenerplatz e.V.
Tel.: 30 82 44 95, Fax: 30 82 44 98";"2016-12-11";"2016-12-11";"13:00-19:00";"mailto:info@klausenerplatz.de";"www.klausenerplatz.de";"";"52,518946";"13,295796"
"23";"Friedrichshain-Kreuzberg";"Traditioneller Weihnachtsbasar im Finnland-Zentrum";"Schleiermacherstr. 24a";"10961 Berlin";"Suomi Keskus - Finnlandzentrum e. V., Schleiermacherstr. 24a, 10961 Berlin, Tel.: 781 81 89";"2016-11-19";"2016-11-20";"12:00-18:00";"mailto:info@finnlandzentrum.de";"www.finnlandzentrum.de";"";"52,48965";"13,39731"
"25";"Friedrichshain-Kreuzberg";"Adventlicher Nachmittag in der Passionskirche";"Marheinekeplatz 1";"10961 Berlin";"Evangelische Kirchengemeinde Heilig Kreuz - Passion, Zossener Str. 65, 10961 Berlin, Tel.: 81 49 25 82 od. 691 20 07";"2016-11-27";"2016-11-27";"15:00-18:00";"mailto:m.schmieder@heiligkreuzpassion.de";"www.heiligkreuzpassion.de";"";"52,49652";"13,39575"
"27";"Friedrichshain-Kreuzberg";"11. KiezWeihnacht an der Samariterkirche/Samariterplatz";"Samariterstr. 14";"10247 Berlin";"Samariter-Galiläa-Gemeinde und Die Friedrichshainer 
Kontakt: Steffen Belz, Eisenbahnstr. 191, 14542 Werder (Havel),    
Tel.: 74 77 26 01";"0000-00-00";"0000-00-00";"13:00-20:00";"";"www.kiezweihnacht.de";"NUR an den Wochenenden";"52,51766";"13,46609"
"199";"Friedrichshain-Kreuzberg";"Erstmalig in diesem Jahr!
""Historische Weihnacht"" in Berlin";"Revaler Straße";"10245 Berlin";"Carnica-Veranstaltungen";"2016-11-25";"2016-12-22";"Mo-Do 14:00-22:00
Fr-Sa 12:00-22:00
So 12:00-19:00";"mailto:veranstaltungen@carnica.de";"www.carnica-spectaculi.de";"";"52,5076327";"13,45436119"
"29";"Lichtenberg";"23. Lichtenberger Lichtermarkt rund ums Rathaus Lichtenberg";"Möllendorffstr. 6";"10367 Berlin";"BA Lichtenberg
Frau Räpricht
Tel.: 902 96 82 05";"2016-11-27";"2016-11-27";"13:00-19:00";"mailto:jacqueline.raepricht@lichtenberg.berlin.de";"";"";"52,515918";"13,479572"
"31";"Lichtenberg";"""Die Welt zuhause in Karlshorst"" auf dem Johannes-Fest-Platz Karlshorst";"Johannes-Fest-Platz";"10318 Berlin";"iKARUS stadtteilzentrum
Tel.: 89 62 25 52";"2016-12-03";"2016-12-04";"Sa 13:00-22:00
So 13:00-18:00";"mailto:ikarus@sozdia.de";"www.ikarus.sozdia.de";"";"52,48282";"13,52774"
"33";"Marzahn-Hellersdorf";"Weihnachtsmarkt im Marktplatz Center Hellersdorf";"Stendaler Str. 24";"12627 Berlin";"Werbegemeinschaft Marktplatz Center Hellersdorf GbR,
Tel.: 99 28 84 - 0, 
Fax: 992 88 42 50";"2016-11-21";"2016-12-24";"Mo-Sa 10:00-20:00
04.12./18.12. 13:00-18:00
24.12. 09:00-14:00";"";"www.marktplatzcenter.com/";"";"52,53749";"13,60488"
"35";"Marzahn-Hellersdorf";"Weihnachtliche Aktionen im EASTGATE Berlin";"Marzahner Promenade 1 A";"12679 Berlin";"ECE Projektmanagement GmbH & Co. KG
Tel.: 911 45 90, Fax: 911 45 91 11";"2016-11-21";"2016-12-24";"Mo-Sa 10:00-20:00
04.12./18.12. 13:00-19:00
24.12. 10:00-14:00";"mailto:info@eastgate-berlin.de";"www.eastgate-berlin.de";"";"52,54282";"13,54264"
"37";"Marzahn-Hellersdorf";"3. Familien-Weihnachtsmarkt";"Alice-Salomon-Platz";"12627 Berlin";"Wollenschlaeger, Thilo-Harry
Tel.: 0163/400 05 00 und 03322/428 82 45
Fax: 03322/423 41 39";"2016-11-25";"2016-12-23";"täglich 11:00-21:00";"mailto:info@wollenschlaeger-berlin.de";"www.wollenschlaeger-berlin.de";"";"52,537131";"13,604357"